Using omxr
…
You can transform a matrix to long format, which is more tidyverse friendly.

library(tidyverse)
read_omx(omxfile, "trips") %>%
  gather_matrix("trips")

## # A tibble: 100 x 3
##    origin destination trips
##     <int>       <int> <dbl>
##  1      1           1  201.
##  2      2           1  191.
##  3      3           1  131.
##  4      4           1  170.
##  5      5           1  215.
##  6      6           1  219.
##  7      7           1  140.
##  8      8           1  182.
##  9      9           1  119.
## 10     10           1  187.
## # … with 90 more rows
…
